{"dir":"FDSoil",
"modulo":"admin_usuario_aux",
"arr":[
    {"dir":"appOrg", "typ":"css" , "arc":"tpl"},
    {"dir":"appOrg", "typ":"css" , "arc":"form"},
    {"dir":"appOrg", "typ":"css" , "arc":"menu"},
    {"dir":"appOrg", "typ":"css" , "arc":"validateData"},
    {"dir":"appOrg", "typ":"js"  , "arc":"app"},
    {"dir":"appOrg", "typ":"js"  , "arc":"validar"},
    {"dir":"FDSoil", "typ":"js"  , "arc":"numero"},
    {"dir":"FDSoil", "typ":"js"  , "arc":"ajax"},
    {"dir":"FDSoil", "typ":"js"  , "arc":"menu"},
    {"dir":"FDSoil", "typ":"js"  , "arc":"combo"},
    {"dir":"FDSoil", "typ":"js"  , "arc":"effect"},
    {"dir":"FDSoil", "typ":"js"  , "arc":"pickList"},
    {"dir":"FDSoil", "typ":"js"  , "arc":"constraintsData"},
    {"dir":"FDSoil", "typ":"js"  , "arc":"formatData"},
    {"dir":"FDSoil", "typ":"js"  , "arc":"validateData"},
    {"dir":"FDSoil", "typ":"js"  , "arc":"validar"},
    {"dir":"FDSoil", "typ":"js"  , "arc":"reqs"},
    {"dir":"modulo", "typ":"js"  , "arc":"validar"}
]}
