{"dir":"FDSoil",
"modulo":"admin_menu_2n_row",
"arr":[
    {"dir":"appOrg", "typ":"css" , "arc":"tpl"},
    {"dir":"appOrg", "typ":"css" , "arc":"form"},
    {"dir":"appOrg", "typ":"css" , "arc":"menu"},
    {"dir":"appOrg", "typ":"js"  , "arc":"app"},
    {"dir":"appOrg", "typ":"js"  , "arc":"validar"},
    {"dir":"modulo", "typ":"js"  , "arc":"submit"},
    {"dir":"FDSoil", "typ":"js"  , "arc":"numero"},
    {"dir":"FDSoil", "typ":"js"  , "arc":"menu"},
    {"dir":"FDSoil", "typ":"js"  , "arc":"validar"}
]}
